<svg width="1440" height="768" viewBox="0 0 1440 768" fill="none" xmlns="http://www.w3.org/2000/svg">
<rect width="1440" height="768" fill="url(#paint0_radial)"/>
<defs>
<radialGradient id="paint0_radial" cx="0" cy="0" r="1" gradientUnits="userSpaceOnUse" gradientTransform="translate(720 384) rotate(90) scale(384 720)">
<stop stop-color="white"/>
<stop offset="1" stop-color="#D6F0F5"/>
</radialGradient>
</defs>
</svg>
