<svg width="24" height="24" viewBox="0 0 24 24" version="1.1" xmlns="http://www.w3.org/2000/svg" xmlns:xlink="http://www.w3.org/1999/xlink">
<title>checked-sm</title>
<desc>Created using Figma</desc>
<g id="Canvas" transform="translate(60 -308)">
<g id="checked-sm">
<g id="Vector">
<use xlink:href="#path0_fill" transform="translate(-60 308)" fill="#68C552"/>
</g>
<g id="Vector">
<use xlink:href="#path1_fill" transform="translate(-51.0662 315.192)" fill="#52B63B"/>
</g>
<g id="Group">
<g id="Vector">
<use xlink:href="#path2_fill" transform="translate(-55.9685 317.445)" fill="#FFFFFF"/>
</g>
<g id="Vector">
<use xlink:href="#path3_fill" transform="translate(-52.2208 313.924)" fill="#FFFFFF"/>
</g>
</g>
</g>
</g>
<defs>
<path id="path0_fill" d="M 12 24C 18.6274 24 24 18.6274 24 12C 24 5.37258 18.6274 0 12 0C 5.37258 0 0 5.37258 0 12C 0 18.6274 5.37258 24 12 24Z"/>
<path id="path1_fill" d="M 1.44405e-07 10.2208L 6.17035 16.3912C 11.2808 15.0284 15.0662 10.3722 15.0662 4.80757C 15.0662 4.69401 15.0662 4.58044 15.0662 4.46688L 10.2208 0L 1.44405e-07 10.2208Z"/>
<path id="path2_fill" d="M 8.27129 5.2429C 8.80126 5.77287 8.80126 6.68139 8.27129 7.21136L 7.1735 8.30915C 6.64353 8.83912 5.73502 8.83912 5.20505 8.30915L 0.397476 3.46372C -0.132492 2.93375 -0.132492 2.02524 0.397476 1.49527L 1.49527 0.397476C 2.02524 -0.132492 2.93375 -0.132492 3.46372 0.397476L 8.27129 5.2429Z"/>
<path id="path3_fill" d="M 8.72555 0.397477C 9.25552 -0.132492 10.164 -0.132492 10.694 0.397477L 11.7918 1.49527C 12.3218 2.02524 12.3218 2.93375 11.7918 3.46372L 3.46372 11.7539C 2.93375 12.2839 2.02524 12.2839 1.49527 11.7539L 0.397476 10.6562C -0.132492 10.1262 -0.132492 9.21766 0.397476 8.6877L 8.72555 0.397477Z"/>
</defs>
</svg>
