<svg width="92" height="18" viewBox="0 0 92 18" version="1.1" xmlns="http://www.w3.org/2000/svg" xmlns:xlink="http://www.w3.org/1999/xlink">
<title>Bloomberg</title>
<desc>Created using Figma</desc>
<g id="Canvas" transform="translate(-5264 -2161)">
<g id="Bloomberg">
<g id="Vector">
<use xlink:href="#path0_fill" transform="translate(5264 2161.31)" fill="#8C969D"/>
</g>
<g id="Vector 2">
<use xlink:href="#path1_fill" transform="translate(5275.65 2161)" fill="#8C969D"/>
</g>
<g id="Vector">
<use xlink:href="#path2_fill" transform="translate(5279.48 2165.34)" fill="#8C969D"/>
</g>
<g id="Vector">
<use xlink:href="#path3_fill" transform="translate(5290.56 2165.34)" fill="#8C969D"/>
</g>
<g id="Vector">
<use xlink:href="#path4_fill" transform="translate(5302 2165.34)" fill="#8C969D"/>
</g>
<g id="Vector">
<use xlink:href="#path5_fill" transform="translate(5318.17 2161)" fill="#8C969D"/>
</g>
<g id="Vector">
<use xlink:href="#path6_fill" transform="translate(5329.17 2165.34)" fill="#8C969D"/>
</g>
<g id="Vector">
<use xlink:href="#path7_fill" transform="translate(5340.02 2165.34)" fill="#8C969D"/>
</g>
<g id="Vector">
<use xlink:href="#path8_fill" transform="translate(5346.04 2165.34)" fill="#8C969D"/>
</g>
</g>
</g>
<defs>
<path id="path0_fill" d="M 2.42171 2.01404L 4.42114 2.01404C 6.24853 2.01404 7.05383 2.57455 7.05383 3.71314C 7.05383 4.70259 6.24853 5.37443 4.63212 5.37443L 2.42171 5.37443L 2.42171 2.01404ZM 0 13.2094L 4.90045 13.2094C 7.47579 13.2094 10.0511 12.3164 10.0511 9.44179C 10.0511 7.74269 8.82388 6.4383 7.11363 6.24958L 7.11363 6.21029C 8.51292 5.80337 9.47799 4.81422 9.47799 3.3211C 9.47799 0.913549 7.3611 0 5.30432 0L 0 0L 0 13.2094ZM 2.42171 7.38847L 4.74681 7.38847C 6.70699 7.38847 7.6328 7.87426 7.6328 9.25605C 7.6328 10.9888 5.89894 11.1954 4.65022 11.1954L 2.42171 11.1954L 2.42171 7.38847Z"/>
<path id="path1_fill" d="M 2.29996 0L 0 0L 0 13.544L 2.29996 13.544L 2.29996 0Z"/>
<path id="path2_fill" d="M 2.30701 4.70259C 2.30701 3.30324 3.32636 2.01701 5.01821 2.01701C 6.71006 2.01701 7.72634 3.30354 7.72634 4.70259C 7.72634 6.10164 6.71006 7.38847 5.01821 7.38847C 3.32605 7.38847 2.30701 6.10194 2.30701 4.70259ZM -3.18191e-07 4.70259C -3.18191e-07 7.52004 2.22851 9.4025 5.01821 9.4025C 7.80453 9.4025 10.0364 7.52033 10.0364 4.70259C 10.0364 1.88485 7.80484 -7.37684e-08 5.01821 -7.37684e-08C 2.22851 -0.000297744 -3.18191e-07 1.88514 -3.18191e-07 4.70259Z"/>
<path id="path3_fill" d="M 2.30701 4.70259C 2.30701 3.30324 3.32636 2.01701 5.01821 2.01701C 6.71006 2.01701 7.72634 3.30354 7.72634 4.70259C 7.72634 6.10164 6.71006 7.38847 5.01821 7.38847C 3.32636 7.38847 2.30701 6.10194 2.30701 4.70259ZM 5.2408e-07 4.70259C 5.2408e-07 7.52004 2.22882 9.4025 5.01821 9.4025C 7.80454 9.4025 10.0364 7.52033 10.0364 4.70259C 10.0364 1.88485 7.80484 -7.37684e-08 5.01821 -7.37684e-08C 2.22851 -0.000297744 5.2408e-07 1.88514 5.2408e-07 4.70259Z"/>
<path id="path4_fill" d="M -2.24606e-07 0.225336L 2.19232 0.225336L 2.19232 1.62617L 2.22851 1.62617C 2.63269 0.786146 3.51618 1.40805e-07 5.05409 1.40805e-07C 6.47761 1.40805e-07 7.46077 0.539973 7.94008 1.6613C 8.61259 0.525387 9.59268 1.40805e-07 10.9739 1.40805e-07C 13.4345 1.40805e-07 14.3005 1.70059 14.3005 3.84649L 14.3005 9.18163L 11.9935 9.18163L 11.9935 4.10695C 11.9935 2.98861 11.6498 2.0182 10.2836 2.0182C 8.84228 2.0182 8.30225 3.17435 8.30225 4.32931L 8.30225 9.18133L 5.9983 9.18133L 5.9983 3.84619C 5.9983 2.74243 5.53678 2.0182 4.42114 2.0182C 2.90409 2.0182 2.30701 3.09696 2.30701 4.2927L 2.30701 9.18133L -2.24606e-07 9.18133L -2.24606e-07 0.225336Z"/>
<path id="path5_fill" d="M 7.6512 9.04381C 7.6512 10.4446 6.63493 11.7297 4.94001 11.7297C 3.24785 11.7297 2.22881 10.4446 2.22881 9.04381C 2.22881 7.64446 3.24785 6.35496 4.94001 6.35496C 6.63493 6.35496 7.6512 7.64446 7.6512 9.04381ZM 0.000305127 13.5211L 2.19263 13.5211L 2.19263 12.1786L 2.22881 12.1786C 2.90408 13.2573 4.11356 13.7434 5.40399 13.7434C 8.2449 13.7434 9.95791 11.6913 9.95791 9.04351C 9.95791 6.39425 8.13052 4.34092 5.49783 4.34092C 3.76948 4.34092 2.84398 5.1226 2.36436 5.70514L 2.30701 5.70514L 2.30701 0L 9.73291e-07 0L 9.73291e-07 13.5211L 0.000305127 13.5211Z"/>
<path id="path6_fill" d="M 2.30701 3.8069C 2.47905 2.5174 3.32636 1.67886 4.68947 1.67886C 6.13108 1.67886 7.01457 2.50013 7.03573 3.8069L 2.30701 3.8069ZM 9.34275 5.48576L 9.34275 4.87107C 9.34275 1.75357 7.59386 0 5.01821 0C 2.22575 0 0 1.88514 0 4.70259C 0 7.52004 2.22575 9.4025 5.01821 9.4025C 6.47485 9.4025 7.84379 8.89914 8.91741 7.6138L 7.26481 6.40348C 6.6889 7.0902 5.93789 7.6138 4.78576 7.6138C 3.4984 7.6138 2.45758 6.81039 2.30701 5.48576L 9.34275 5.48576Z"/>
<path id="path7_fill" d="M 0.000304977 0.225336L 2.30732 0.225336L 2.30732 1.64373L 2.34657 1.64373C 2.84704 0.617665 3.86332 1.40805e-07 5.07555 1.40805e-07C 5.36504 1.40805e-07 5.63337 0.0571526 5.9017 0.133058L 5.9017 2.29652C 5.51868 2.20425 5.15099 2.12953 4.78576 2.12953C 2.61459 2.12953 2.30701 3.90335 2.30701 4.38944L 2.30701 9.18163L 8.23554e-07 9.18163L 8.23554e-07 0.225336L 0.000304977 0.225336Z"/>
<path id="path8_fill" d="M 5.0363 2.0182C 6.70699 2.0182 7.76528 3.09696 7.76528 4.6496C 7.76528 6.13974 6.72785 7.27833 5.0179 7.27833C 3.4619 7.27833 2.30671 6.10313 2.30671 4.68473C 2.30671 3.09696 3.41958 2.0182 5.0363 2.0182ZM 7.76528 0.225336L 7.76528 1.56902L 7.7291 1.56902C 7.05383 0.485797 5.8416 1.40805e-07 4.55392 1.40805e-07C 1.71025 1.40805e-07 -1.04816e-06 2.05333 -1.04816e-06 4.70408C -1.04816e-06 7.23904 1.82739 9.29266 4.59317 9.29266C 5.74806 9.29266 6.93914 8.86521 7.61502 7.98857L 7.64783 7.98857L 7.64783 8.64285C 7.64783 10.4137 6.9603 11.6463 4.72872 11.6463C 3.44105 11.6463 2.47875 11.1778 1.556 10.3524L 0.174798 12.1845C 1.4775 13.3085 3.03656 13.6601 4.74957 13.6601C 8.34457 13.6601 9.95761 11.6053 9.95761 8.37911L 9.95761 0.225336L 7.76528 0.225336Z"/>
</defs>
</svg>
