<svg width="100" height="100" viewBox="0 0 100 100" fill="none" xmlns="http://www.w3.org/2000/svg">
<g clip-path="url(#clip0)">
<path d="M98.6308 51.3862C96.2008 48.2272 91.5475 47.9251 88.7294 50.7433L79.661 59.812C80.4152 61.2478 80.8442 62.88 80.8442 64.6112C80.8442 70.3225 76.1979 74.9688 70.4866 74.9688H45.6978C44.08 74.9688 42.7684 73.6572 42.7684 72.0395C42.7684 70.4217 44.08 69.1101 45.6978 69.1101H70.4866C72.9674 69.1101 74.9855 67.092 74.9855 64.6112C74.9855 62.1305 72.9674 60.1124 70.4866 60.1124H58.36C56.1577 60.1124 54.1095 59.123 52.7405 57.398L51.4039 55.714C50.2105 54.206 48.6246 53.8502 46.5713 53.8502H37.8124C35.2527 53.8502 32.776 54.7593 30.8241 56.4153L8.22168 70.4617L23.4299 92.1143L28.0869 88.4139H65.373C68.2463 88.4139 71.001 87.2691 73.0282 85.2328L98.0768 60.0692C100.412 57.7232 100.649 54.0101 98.6308 51.3862Z" fill="#FFBBBB"/>
<path d="M19.5322 99.4702L24.9458 96.3446C26.8139 95.266 27.4539 92.8773 26.3755 91.0093L12.7027 67.3275C11.6241 65.4594 9.23532 64.8194 7.36718 65.898L1.95355 69.0236C0.0854124 70.1022 -0.554552 72.491 0.523837 74.3591L14.1965 98.0409C15.2752 99.9087 17.664 100.549 19.5322 99.4702Z" fill="#354F65"/>
<path d="M70.4865 69.1099C72.9672 69.1099 74.9854 67.0917 74.9854 64.611C74.9854 62.1302 72.9672 60.1121 70.4865 60.1121H58.3598C56.1575 60.1121 54.1093 59.1228 52.7403 57.3978L51.4037 55.7138C50.9839 55.1832 50.5144 54.7977 49.9941 54.5178V69.1101H70.4865V69.1099Z" fill="#FFBBBB"/>
<path d="M98.6308 51.3862C96.2008 48.2272 91.5475 47.9251 88.7294 50.7433L79.661 59.812C80.4152 61.2478 80.8442 62.88 80.8442 64.6112C80.8442 70.3225 76.1979 74.9688 70.4867 74.9688H49.9941V88.4141H65.373C68.2463 88.4141 71.001 87.2693 73.0282 85.233L98.0768 60.0692C100.412 57.7232 100.649 54.0101 98.6308 51.3862Z" fill="#FCCFCF"/>
<path d="M49.9943 17.6507C54.8668 17.6507 58.8167 13.7007 58.8167 8.82827C58.8167 3.95579 54.8668 0.00585938 49.9943 0.00585938C45.1218 0.00585938 41.1719 3.95579 41.1719 8.82827C41.1719 13.7007 45.1218 17.6507 49.9943 17.6507Z" fill="#67B252"/>
<path d="M55.8997 23.5095H44.0876C39.5309 23.5095 35.5595 26.6123 34.4571 31.0336L32.1521 40.2785C31.7617 41.8441 32.9461 43.3601 34.5596 43.3601H65.4275C67.0411 43.3601 68.2254 41.8443 67.835 40.2785L65.53 31.0336C64.4278 26.6123 60.4566 23.5095 55.8997 23.5095Z" fill="#67B252"/>
<path d="M58.8165 8.82826C58.8165 3.95579 54.8666 0.00585938 49.9941 0.00585938V17.6509C54.8666 17.6509 58.8165 13.7009 58.8165 8.82826Z" fill="#68C552"/>
<path d="M67.8358 40.2785L65.5308 31.0336C64.4284 26.6123 60.457 23.5095 55.9003 23.5095H49.9941V43.3601H65.4281C67.0417 43.3601 68.2262 41.8441 67.8358 40.2785Z" fill="#68C552"/>
</g>
<defs>
<clipPath id="clip0">
<rect width="100" height="100" fill="white"/>
</clipPath>
</defs>
</svg>
