<svg width="24" height="24" viewBox="0 0 24 24" version="1.1" xmlns="http://www.w3.org/2000/svg" xmlns:xlink="http://www.w3.org/1999/xlink">
<title>facebook</title>
<desc>Created using Figma</desc>
<g id="Canvas" transform="translate(-1164 -942)">
<g id="facebook">
<g id="Vector">
<use xlink:href="#path0_fill" transform="translate(1164 942)" fill="#3A5A98"/>
</g>
<g id="Vector">
<use xlink:href="#path1_fill" transform="translate(1167.52 945.53)" fill="#345387"/>
</g>
<g id="Vector">
<use xlink:href="#path2_fill" transform="translate(1172.44 946.667)" fill="#2E4D72"/>
</g>
<g id="Vector">
<use xlink:href="#path3_fill" transform="translate(1172.43 946.708)" fill="#FFFFFF"/>
</g>
</g>
</g>
<defs>
<path id="path0_fill" d="M 11.9982 23.9817C 18.6246 23.9817 23.9964 18.6132 23.9964 11.9908C 23.9964 5.36848 18.6246 0 11.9982 0C 5.37177 0 0 5.36848 0 11.9908C 0 18.6132 5.37177 23.9817 11.9982 23.9817Z"/>
<path id="path1_fill" d="M 16.9689 -1.11185e-07C 21.6545 4.68272 21.6547 12.2752 16.9687 16.9583C 12.2829 21.641 4.68558 21.641 -1.88512e-07 16.9583L 16.9689 -1.11185e-07Z"/>
<path id="path2_fill" d="M 15.4825 8.67402L 6.80334 -5.25041e-08L 2.29715 4.50344L 2.5656 4.77173L -3.33759e-07 7.33556L 2.09993 9.4342L 1.82373 9.71008L 4.09718 11.9821L 1.47624 14.6015L 5.95362 19.0761C 11.0026 18.055 14.8999 13.8657 15.4825 8.67402Z"/>
<path id="path3_fill" d="M 1.47417 2.82893C 1.47417 3.1968 1.47417 4.83989 1.47417 4.83989L 6.7988e-08 4.83989L 6.7988e-08 7.29902L 1.47417 7.29902L 1.47417 14.606L 4.5024 14.606L 4.5024 7.29902L 6.53448 7.29902C 6.53448 7.29902 6.72486 6.11965 6.81696 4.83063C 6.55245 4.83063 4.51394 4.83063 4.51394 4.83063C 4.51394 4.83063 4.51394 3.39982 4.51394 3.14909C 4.51394 2.898 4.84396 2.56003 5.17039 2.56003C 5.49626 2.56003 6.1838 2.56003 6.82035 2.56003C 6.82035 2.2249 6.82035 1.06825 6.82035 -8.25443e-08C 5.97043 -8.25443e-08 5.0035 -8.25443e-08 4.57703 -8.25443e-08C 1.39918 -0.000151887 1.47417 2.46126 1.47417 2.82893Z"/>
</defs>
</svg>
